{
  "photos": {
    "page": 2,
    "pages": 2625,
    "perpage": 60,
    "total": "157452",
    "photo": [
      {
        "id": "49722988848",
        "owner": "61109532@N05",
        "secret": "38fe2bf30e",
        "server": "65535",
        "farm": 66,
        "title": "Alicia Kitten green silk dress",
        "ispublic": 1,
        "isfriend": 0,
        "isfamily": 0
      },
      {
        "id": "49722988143",
        "owner": "61109532@N05",
        "secret": "16cf26c612",
        "server": "65535",
        "farm": 66,
        "title": "Alicia Kitten green silk dress",
        "ispublic": 1,
        "isfriend": 0,
        "isfamily": 0
      },
      {
        "id": "49722987618",
        "owner": "61109532@N05",
        "secret": "09288cca82",
        "server": "65535",
        "farm": 66,
        "title": "Alicia Kitten green silk dress",
        "ispublic": 1,
        "isfriend": 0,
        "isfamily": 0
      },
      {
        "id": "49722985718",
        "owner": "61109532@N05",
        "secret": "2585fae24a",
        "server": "65535",
        "farm": 66,
        "title": "Alicia Kitten green silk dress",
        "ispublic": 1,
        "isfriend": 0,
        "isfamily": 0
      },
      {
        "id": "49723836677",
        "owner": "61109532@N05",
        "secret": "2f94b17ef2",
        "server": "65535",
        "farm": 66,
        "title": "Alicia Kitten green silk dress",
        "ispublic": 1,
        "isfriend": 0,
        "isfamily": 0
      },
      {
        "id": "49723518126",
        "owner": "61109532@N05",
        "secret": "d08a27d861",
        "server": "65535",
        "farm": 66,
        "title": "Alicia Kitten green silk dress",
        "ispublic": 1,
        "isfriend": 0,
        "isfamily": 0
      },
      {
        "id": "49722979358",
        "owner": "61109532@N05",
        "secret": "1850471f07",
        "server": "65535",
        "farm": 66,
        "title": "Alicia Kitten green silk dress",
        "ispublic": 1,
        "isfriend": 0,
        "isfamily": 0
      },
      {
        "id": "49723513836",
        "owner": "61109532@N05",
        "secret": "001e62214d",
        "server": "65535",
        "farm": 66,
        "title": "Alicia Kitten green silk dress",
        "ispublic": 1,
        "isfriend": 0,
        "isfamily": 0
      },
      {
        "id": "49723829507",
        "owner": "61109532@N05",
        "secret": "8349d35ec0",
        "server": "65535",
        "farm": 66,
        "title": "Alicia Kitten green silk dress",
        "ispublic": 1,
        "isfriend": 0,
        "isfamily": 0
      },
      {
        "id": "49723511496",
        "owner": "61109532@N05",
        "secret": "a3c42ffdcc",
        "server": "65535",
        "farm": 66,
        "title": "Alicia Kitten green silk dress",
        "ispublic": 1,
        "isfriend": 0,
        "isfamily": 0
      },
      {
        "id": "49723560281",
        "owner": "143537090@N02",
        "secret": "6089bcb10d",
        "server": "65535",
        "farm": 66,
        "title": "Orange Tabby Cat",
        "ispublic": 1,
        "isfriend": 0,
        "isfamily": 0
      },
      {
        "id": "49723668687",
        "owner": "40453573@N00",
        "secret": "a0efebda86",
        "server": "65535",
        "farm": 66,
        "title": "Feebee & Mickie",
        "ispublic": 1,
        "isfriend": 0,
        "isfamily": 0
      },
      {
        "id": "49723292272",
        "owner": "153237179@N02",
        "secret": "e271389d55",
        "server": "65535",
        "farm": 66,
        "title": "LOST for several days Male 7 month old white kitten #DeerRun near 146th Ave & Deerfield Drive. Pls RT, watch, share, help to locate this kitty . vpdescription 2020-04-01T01:44:14.000Z by Larissa Missing 7 month old male in Deer Run; got out and hasn’t com",
        "ispublic": 1,
        "isfriend": 0,
        "isfamily": 0
      },
      {
        "id": "49723174957",
        "owner": "187192336@N07",
        "secret": "85c1a4f5d2",
        "server": "65535",
        "farm": 66,
        "title": "Chaton de saule",
        "ispublic": 1,
        "isfriend": 0,
        "isfamily": 0
      },
      {
        "id": "49723167667",
        "owner": "33244024@N06",
        "secret": "9f3d553118",
        "server": "65535",
        "farm": 66,
        "title": "Young Stray Cat",
        "ispublic": 1,
        "isfriend": 0,
        "isfamily": 0
      },
      {
        "id": "49723096547",
        "owner": "187141226@N04",
        "secret": "e2b8e47ccb",
        "server": "65535",
        "farm": 66,
        "title": "Страница №  13779. Галерея : Ошейники от клещей для маленьких собак",
        "ispublic": 1,
        "isfriend": 0,
        "isfamily": 0
      },
      {
        "id": "49722099048",
        "owner": "187141226@N04",
        "secret": "0f1a542225",
        "server": "65535",
        "farm": 66,
        "title": "Страница№  278. Витрина : Толстовки Brandit",
        "ispublic": 1,
        "isfriend": 0,
        "isfamily": 0
      },
      {
        "id": "49722581571",
        "owner": "137373075@N02",
        "secret": "6d2bac6737",
        "server": "65535",
        "farm": 66,
        "title": "STAFF: Kate Haggman's kittens",
        "ispublic": 1,
        "isfriend": 0,
        "isfamily": 0
      },
      {
        "id": "46703924601",
        "owner": "15453769@N03",
        "secret": "7216bb4445",
        "server": "4845",
        "farm": 5,
        "title": "Luna",
        "ispublic": 1,
        "isfriend": 0,
        "isfamily": 0
      },
      {
        "id": "49721934933",
        "owner": "85593385@N04",
        "secret": "ae22db14c8",
        "server": "65535",
        "farm": 66,
        "title": "Missandei. The pondering kitten. #Cat",
        "ispublic": 1,
        "isfriend": 0,
        "isfamily": 0
      },
      {
        "id": "45783889555",
        "owner": "15453769@N03",
        "secret": "62f7cf8473",
        "server": "7882",
        "farm": 8,
        "title": "Bean and Luna",
        "ispublic": 1,
        "isfriend": 0,
        "isfamily": 0
      },
      {
        "id": "39734306753",
        "owner": "15453769@N03",
        "secret": "6febf313ce",
        "server": "4917",
        "farm": 5,
        "title": "Bean and Luna",
        "ispublic": 1,
        "isfriend": 0,
        "isfamily": 0
      },
      {
        "id": "39686231823",
        "owner": "15453769@N03",
        "secret": "abd01bdbfc",
        "server": "7858",
        "farm": 8,
        "title": "Bean and Luna",
        "ispublic": 1,
        "isfriend": 0,
        "isfamily": 0
      },
      {
        "id": "32776664928",
        "owner": "15453769@N03",
        "secret": "e276b38bb8",
        "server": "4877",
        "farm": 5,
        "title": "Bean and  Luna",
        "ispublic": 1,
        "isfriend": 0,
        "isfamily": 0
      },
      {
        "id": "32776664578",
        "owner": "15453769@N03",
        "secret": "6d070fdb3a",
        "server": "4857",
        "farm": 5,
        "title": "Bean and Luna",
        "ispublic": 1,
        "isfriend": 0,
        "isfamily": 0
      },
      {
        "id": "49722624357",
        "owner": "187560939@N06",
        "secret": "a34e9ebeed",
        "server": "65535",
        "farm": 66,
        "title": "MAKEUP TUTORIAL PALING DI REQUEST! EASY GRADUATION MAKEUP",
        "ispublic": 1,
        "isfriend": 0,
        "isfamily": 0
      },
      {
        "id": "49722564922",
        "owner": "49998540@N03",
        "secret": "667acf23e8",
        "server": "65535",
        "farm": 66,
        "title": "ぼんやりねこ #ねこ #猫 #cat #gatto #chat #kitten",
        "ispublic": 1,
        "isfriend": 0,
        "isfamily": 0
      },
      {
        "id": "49722459207",
        "owner": "9900701@N07",
        "secret": "afac54eeb9",
        "server": "65535",
        "farm": 66,
        "title": "I’m scared",
        "ispublic": 1,
        "isfriend": 0,
        "isfamily": 0
      },
      {
        "id": "45644468505",
        "owner": "15453769@N03",
        "secret": "3085aeb6f7",
        "server": "4892",
        "farm": 5,
        "title": "Bean",
        "ispublic": 1,
        "isfriend": 0,
        "isfamily": 0
      },
      {
        "id": "46517207871",
        "owner": "15453769@N03",
        "secret": "98ebd5ba96",
        "server": "4828",
        "farm": 5,
        "title": "Luna and Bean",
        "ispublic": 1,
        "isfriend": 0,
        "isfamily": 0
      },
      {
        "id": "45603733495",
        "owner": "15453769@N03",
        "secret": "8bf1b6133c",
        "server": "7884",
        "farm": 8,
        "title": "Luna and Bean",
        "ispublic": 1,
        "isfriend": 0,
        "isfamily": 0
      },
      {
        "id": "32546767918",
        "owner": "15453769@N03",
        "secret": "4a5d197646",
        "server": "7884",
        "farm": 8,
        "title": "Bean",
        "ispublic": 1,
        "isfriend": 0,
        "isfamily": 0
      },
      {
        "id": "32546696918",
        "owner": "15453769@N03",
        "secret": "b9d29ef5c7",
        "server": "7806",
        "farm": 8,
        "title": "Bean",
        "ispublic": 1,
        "isfriend": 0,
        "isfamily": 0
      },
      {
        "id": "46418471661",
        "owner": "15453769@N03",
        "secret": "1a95fd2427",
        "server": "7836",
        "farm": 8,
        "title": "Bean and my dad",
        "ispublic": 1,
        "isfriend": 0,
        "isfamily": 0
      },
      {
        "id": "49722401472",
        "owner": "30711218@N00",
        "secret": "b15c09f238",
        "server": "65535",
        "farm": 66,
        "title": "mmmm....beer",
        "ispublic": 1,
        "isfriend": 0,
        "isfamily": 0
      },
      {
        "id": "46308401242",
        "owner": "15453769@N03",
        "secret": "21199cd3ca",
        "server": "4838",
        "farm": 5,
        "title": "Bean",
        "ispublic": 1,
        "isfriend": 0,
        "isfamily": 0
      },
      {
        "id": "45446839465",
        "owner": "15453769@N03",
        "secret": "2eb773b0ec",
        "server": "4804",
        "farm": 5,
        "title": "Bean",
        "ispublic": 1,
        "isfriend": 0,
        "isfamily": 0
      },
      {
        "id": "32487416678",
        "owner": "15453769@N03",
        "secret": "8343ae2d17",
        "server": "4900",
        "farm": 5,
        "title": "Bean",
        "ispublic": 1,
        "isfriend": 0,
        "isfamily": 0
      },
      {
        "id": "45636330654",
        "owner": "15453769@N03",
        "secret": "3c653e38d2",
        "server": "4830",
        "farm": 5,
        "title": "Bean",
        "ispublic": 1,
        "isfriend": 0,
        "isfamily": 0
      },
      {
        "id": "49721334863",
        "owner": "59580107@N04",
        "secret": "5deca3c6db",
        "server": "65535",
        "farm": 66,
        "title": "NEW! Diana Dress - at FaMESHed!",
        "ispublic": 1,
        "isfriend": 0,
        "isfamily": 0
      },
      {
        "id": "49722126357",
        "owner": "154605377@N08",
        "secret": "c47b5cd8ff",
        "server": "65535",
        "farm": 66,
        "title": "Persian Kitten",
        "ispublic": 1,
        "isfriend": 0,
        "isfamily": 0
      },
      {
        "id": "49721786491",
        "owner": "123501973@N02",
        "secret": "10df3fce08",
        "server": "65535",
        "farm": 66,
        "title": "Bad Bunny",
        "ispublic": 1,
        "isfriend": 0,
        "isfamily": 0
      },
      {
        "id": "49721150623",
        "owner": "38941615@N02",
        "secret": "9a7f897b7a",
        "server": "65535",
        "farm": 66,
        "title": "Gino ❤ Buonanotte!",
        "ispublic": 1,
        "isfriend": 0,
        "isfamily": 0
      },
      {
        "id": "49721009398",
        "owner": "11440579@N04",
        "secret": "4f1cceab7b",
        "server": "65535",
        "farm": 66,
        "title": "Kitsch Kitties",
        "ispublic": 1,
        "isfriend": 0,
        "isfamily": 0
      },
      {
        "id": "49719771173",
        "owner": "38941615@N02",
        "secret": "1f27c30c2e",
        "server": "65535",
        "farm": 66,
        "title": "Neighborhood cat - Gata del barrio (Explore)",
        "ispublic": 1,
        "isfriend": 0,
        "isfamily": 0
      },
      {
        "id": "49719779043",
        "owner": "32294839@N06",
        "secret": "8ddda03cc2",
        "server": "65535",
        "farm": 66,
        "title": "See Here You Guys, Just Feast Your Eyes on Little Old Instant Me",
        "ispublic": 1,
        "isfriend": 0,
        "isfamily": 0
      },
      {
        "id": "49720634712",
        "owner": "32294839@N06",
        "secret": "7d35b9e552",
        "server": "65535",
        "farm": 66,
        "title": "You've Heard of Instant Tea",
        "ispublic": 1,
        "isfriend": 0,
        "isfamily": 0
      },
      {
        "id": "49720316636",
        "owner": "32294839@N06",
        "secret": "c362bd1120",
        "server": "65535",
        "farm": 66,
        "title": "Now, You've Heard of Instant Coffee",
        "ispublic": 1,
        "isfriend": 0,
        "isfamily": 0
      },
      {
        "id": "49719787173",
        "owner": "137420240@N05",
        "secret": "fe0ac3b3a1",
        "server": "65535",
        "farm": 66,
        "title": "Street cat",
        "ispublic": 1,
        "isfriend": 0,
        "isfamily": 0
      },
      {
        "id": "49720589917",
        "owner": "187064310@N03",
        "secret": "d3890f9489",
        "server": "65535",
        "farm": 66,
        "title": "Ruby, up close",
        "ispublic": 1,
        "isfriend": 0,
        "isfamily": 0
      },
      {
        "id": "49719661368",
        "owner": "157885800@N02",
        "secret": "b56c329f1a",
        "server": "65535",
        "farm": 66,
        "title": "P1000420_02",
        "ispublic": 1,
        "isfriend": 0,
        "isfamily": 0
      },
      {
        "id": "49720462197",
        "owner": "187687122@N03",
        "secret": "571414e982",
        "server": "65535",
        "farm": 66,
        "title": "Such a little kitten",
        "ispublic": 1,
        "isfriend": 0,
        "isfamily": 0
      },
      {
        "id": "49719608003",
        "owner": "187687122@N03",
        "secret": "f00de7b8bd",
        "server": "65535",
        "farm": 66,
        "title": "Loving",
        "ispublic": 1,
        "isfriend": 0,
        "isfamily": 0
      },
      {
        "id": "49720259947",
        "owner": "26921244@N05",
        "secret": "f7aca12091",
        "server": "65535",
        "farm": 66,
        "title": "Patmian Cats",
        "ispublic": 1,
        "isfriend": 0,
        "isfamily": 0
      },
      {
        "id": "49719941671",
        "owner": "26921244@N05",
        "secret": "8d03686a27",
        "server": "65535",
        "farm": 66,
        "title": "Patmian Cats",
        "ispublic": 1,
        "isfriend": 0,
        "isfamily": 0
      },
      {
        "id": "49720259422",
        "owner": "187180121@N03",
        "secret": "04e05d1d09",
        "server": "65535",
        "farm": 66,
        "title": "Pet",
        "ispublic": 1,
        "isfriend": 0,
        "isfamily": 0
      },
      {
        "id": "49719871267",
        "owner": "33244024@N06",
        "secret": "1a227e058a",
        "server": "65535",
        "farm": 66,
        "title": "Kitten",
        "ispublic": 1,
        "isfriend": 0,
        "isfamily": 0
      },
      {
        "id": "49718996503",
        "owner": "33244024@N06",
        "secret": "fc46f7c8e1",
        "server": "65535",
        "farm": 66,
        "title": "Kitten",
        "ispublic": 1,
        "isfriend": 0,
        "isfamily": 0
      },
      {
        "id": "49718793523",
        "owner": "12494104@N00",
        "secret": "725f5afcd1",
        "server": "65535",
        "farm": 66,
        "title": "Burmese 7224",
        "ispublic": 1,
        "isfriend": 0,
        "isfamily": 0
      }
    ]
  },
  "stat": "ok"
}
